{"current_page":1,"data":[{"id":45,"user_id":1,"brand_id":3,"model_id":44,"body_type_id":null,"fuel_type_id":4,"transmission_id":6,"drive_type_id":null,"sales_method_id":null,"document_type_id":null,"exterior_color_id":null,"interior_color_id":null,"title":"ACURA TL","description":null,"price":"545457.00","regular_price_label":"545 457","regular_price_description":null,"sale_price":"545457.00","sale_price_label":null,"instant_savings_label":null,"request_price_option":false,"currency":"Ft","mileage":343,"year":2023,"vin_number":"146760","history_report":null,"engine_number":"6767","cylinder_capacity":3433,"performance":4554,"sales_method":null,"status":null,"vehicle_status_id":null,"location":"TAnita Fitness - Szem\u00e9lyi edz\u0151 Budapest","address":"TAnita Fitness - Szem\u00e9lyi edz\u0151 Budapest, Lomb u. 16, 1139 Magyarorsz\u00e1g","latitude":"47.536199","longitude":"19.070348","main_image":"vehicles\/lrQZiMvDz4NiNNNi6DiDFwJK7fpCA9Ed8YC64HTb.png","gallery_images":null,"technical_expiration":null,"is_featured":false,"ad_status":"active","owner_type":"private","video_url":null,"created_at":"2026-03-09T18:24:36.000000Z","updated_at":"2026-03-10T19:54:37.000000Z","main_image_url":"https:\/\/carswap-backend.hexafume.com\/storage\/vehicles\/lrQZiMvDz4NiNNNi6DiDFwJK7fpCA9Ed8YC64HTb.png","gallery_image_urls":[],"brand":{"id":3,"name":"ACURA","created_at":"2026-03-03T03:36:57.000000Z","updated_at":"2026-03-03T03:36:57.000000Z"},"model":{"id":44,"brand_id":3,"name":"TL","created_at":null,"updated_at":null},"body_type":null,"fuel_type":{"id":4,"name":"Hybrid","created_at":null,"updated_at":null},"transmission":{"id":6,"name":"AUTOMATA (8 FOKOZAT\u00da)","created_at":"2026-03-03T02:14:48.000000Z","updated_at":"2026-03-03T02:14:48.000000Z"},"drive_type":null,"exterior_color":null,"interior_color":null,"document_type":null,"vehicle_status":null,"properties":[]}],"first_page_url":"https:\/\/carswap-backend.hexafume.com\/api\/vehicles?page=1","from":1,"last_page":31,"last_page_url":"https:\/\/carswap-backend.hexafume.com\/api\/vehicles?page=31","links":[{"url":null,"label":"&laquo; Previous","page":null,"active":false},{"url":"https:\/\/carswap-backend.hexafume.com\/api\/vehicles?page=1","label":"1","page":1,"active":true},{"url":"https:\/\/carswap-backend.hexafume.com\/api\/vehicles?page=2","label":"2","page":2,"active":false},{"url":"https:\/\/carswap-backend.hexafume.com\/api\/vehicles?page=3","label":"3","page":3,"active":false},{"url":"https:\/\/carswap-backend.hexafume.com\/api\/vehicles?page=4","label":"4","page":4,"active":false},{"url":"https:\/\/carswap-backend.hexafume.com\/api\/vehicles?page=5","label":"5","page":5,"active":false},{"url":"https:\/\/carswap-backend.hexafume.com\/api\/vehicles?page=6","label":"6","page":6,"active":false},{"url":"https:\/\/carswap-backend.hexafume.com\/api\/vehicles?page=7","label":"7","page":7,"active":false},{"url":"https:\/\/carswap-backend.hexafume.com\/api\/vehicles?page=8","label":"8","page":8,"active":false},{"url":"https:\/\/carswap-backend.hexafume.com\/api\/vehicles?page=9","label":"9","page":9,"active":false},{"url":"https:\/\/carswap-backend.hexafume.com\/api\/vehicles?page=10","label":"10","page":10,"active":false},{"url":null,"label":"...","active":false},{"url":"https:\/\/carswap-backend.hexafume.com\/api\/vehicles?page=30","label":"30","page":30,"active":false},{"url":"https:\/\/carswap-backend.hexafume.com\/api\/vehicles?page=31","label":"31","page":31,"active":false},{"url":"https:\/\/carswap-backend.hexafume.com\/api\/vehicles?page=2","label":"Next &raquo;","page":2,"active":false}],"next_page_url":"https:\/\/carswap-backend.hexafume.com\/api\/vehicles?page=2","path":"https:\/\/carswap-backend.hexafume.com\/api\/vehicles","per_page":1,"prev_page_url":null,"to":1,"total":31}